<?xml version="1.0" encoding="UTF-8"?>
<svg width="22px" height="16px" viewBox="0 0 22 16" version="1.1" xmlns="http://www.w3.org/2000/svg" xmlns:xlink="http://www.w3.org/1999/xlink">
    <!-- Generator: sketchtool 59.1 (101010) - https://sketch.com -->
    <title>13B6EAE5-5519-4552-82B3-56095EEC2F73</title>
    <desc>Created with sketchtool.</desc>
    <g id="Page-1" stroke="none" stroke-width="1" fill="none" fill-rule="evenodd" opacity="0.4">
        <g id="Subscriptions" transform="translate(-35.000000, -295.000000)" fill="#000000" fill-rule="nonzero">
            <g id="sidemenu/Vendors-sidemenu/Subscriptions">
                <g id="Group-6" transform="translate(30.000000, 286.000000)">
                    <g id="ic_dash_active-ic_bill_inactive">
                        <path d="M25.6191406,9.91796875 C24.4459577,9.43098715 23.1621163,9.1875 21.7675781,9.1875 C20.8600215,9.1875 19.8307349,9.29817598 18.6796875,9.51953125 L18.1152339,9.63885502 C17.6946618,9.73154687 17.1855494,9.85052421 16.5878931,9.99578794 L14.6621069,10.4710089 C13.7656224,10.6889045 13.0683619,10.8476558 12.5703125,10.9472656 C11.4192651,11.1464854 10.3899785,11.2460938 9.48242188,11.2460938 C8.53336114,11.2460938 7.63515464,11.1359366 6.78778191,10.9156193 L6.42773438,10.8144531 C6.29492121,10.7701821 6.17317764,10.7480469 6.0625,10.7480469 C5.77473814,10.7480469 5.5257172,10.8476553 5.31542969,11.046875 C5.10514218,11.2460947 5,11.5006495 5,11.8105469 L5,22.3359375 C5,22.5572928 5.05533799,22.7565095 5.16601562,22.9335938 C5.27669326,23.110678 5.43163963,23.2434891 5.63085938,23.3320312 C6.80404232,23.8190129 8.08788365,24.0625 9.48242188,24.0625 C10.3899785,24.0625 11.4192651,23.951824 12.5703125,23.7304688 L13.1347661,23.611145 C13.5553382,23.5184531 14.0644506,23.3994758 14.6621069,23.2542121 L16.5878931,22.7789911 C17.4843776,22.5610955 18.1816381,22.4023442 18.6796875,22.3027344 C19.8307349,22.1035146 20.8600215,22.0039062 21.7675781,22.0039062 C22.7166389,22.0039062 23.6148454,22.1140634 24.4622181,22.3343807 L24.8222656,22.4355469 C24.9550788,22.4798179 25.0768224,22.5019531 25.1875,22.5019531 C25.4752619,22.5019531 25.7242828,22.4023447 25.9345703,22.203125 C26.1448578,22.0039053 26.25,21.7493505 26.25,21.4394531 L26.25,10.9140625 C26.25,10.6927072 26.194662,10.4934905 26.0839844,10.3164062 C25.9733067,10.139322 25.8183604,10.0065109 25.6191406,9.91796875 Z M6.59375,12.5078125 C7.19140924,12.6627612 7.88866789,12.7623696 8.68554688,12.8066406 C8.57486924,13.2936222 8.32584829,13.7031233 7.93847656,14.0351562 C7.55110483,14.3671892 7.10286713,14.5332031 6.59375,14.5332031 L6.59375,12.5078125 Z M6.59375,21.9707031 L6.59375,20.3769531 C7.16927371,20.3769531 7.66178181,20.5761699 8.07128906,20.9746094 C8.48079632,21.3730489 8.69661447,21.8600232 8.71875,22.4355469 C7.96614207,22.3691403 7.25781582,22.2141939 6.59375,21.9707031 Z M15.625,19.8125 C14.8945276,19.8125 14.2692083,19.5026073 13.7490234,18.8828125 C13.2288385,18.2630177 12.96875,17.5104211 12.96875,16.625 C12.96875,15.7395789 13.2288385,14.9869823 13.7490234,14.3671875 C14.2692083,13.7473927 14.8945276,13.4375 15.625,13.4375 C16.3554724,13.4375 16.9807917,13.7473927 17.5009766,14.3671875 C18.0211615,14.9869823 18.28125,15.7395789 18.28125,16.625 C18.28125,17.5104211 18.0211615,18.2630177 17.5009766,18.8828125 C16.9807917,19.5026073 16.3554724,19.8125 15.625,19.8125 Z M24.65625,20.7421875 C24.1471329,20.6093743 23.5494826,20.509766 22.8632812,20.4433594 C22.9518234,20.0227844 23.1621077,19.6630874 23.4941406,19.3642578 C23.8261735,19.0654282 24.2135395,18.8828128 24.65625,18.8164062 L24.65625,20.7421875 Z M24.65625,12.90625 C24.1471329,12.8398434 23.7154966,12.6129577 23.3613281,12.2255859 C23.0071597,11.8382142 22.8190105,11.3789089 22.796875,10.8476562 C23.4609408,10.9140628 24.0807263,11.0579416 24.65625,11.2792969 L24.65625,12.90625 Z" id="path"></path>
                    </g>
                </g>
            </g>
        </g>
    </g>
</svg>